{
    "jsonpaths": [
        "$.schema.vendor",
        "$.schema.name",
        "$.schema.format",
        "$.schema.version",
        "$.hierarchy.rootId",
        "$.hierarchy.rootTstamp",
        "$.hierarchy.refRoot",
        "$.hierarchy.refTree",
        "$.hierarchy.refParent",
        "$.data.logged_in",
        "$.data.user_phone_number_hash"
    ]
}
