{
    "jsonpaths": [
        "$.schema.vendor",
        "$.schema.name",
        "$.schema.format",
        "$.schema.version",
        "$.hierarchy.rootId",
        "$.hierarchy.rootTstamp",
        "$.hierarchy.refRoot",
        "$.hierarchy.refTree",
        "$.hierarchy.refParent",
        "$.data.amount",
        "$.data.entity_guid",
        "$.data.id",
        "$.data.interval",
        "$.data.is_trial",
        "$.data.last_billing",
        "$.data.next_billing",
        "$.data.payment_method",
        "$.data.plan_id",
        "$.data.status",
        "$.data.user_guid"
    ]
}
